{
    "code": 1,
    "message": "",
    "object": [
        {
            "orderID": 1,
            "orderNum": 11,
            "customerOrderId": 12312312312312,
            "brandID": 1,
            "brandName": "本田",
            "brandFactoryID": 11,
            "brandFactoryName": "广州",
            "engineNum": 11111,
            "vin": 1111111,
            "drivingLicenceImgFileID": 1,
            "drivingLicenceImgPath": "http://private4s.beitaijf.net/download?fileID=1422222",
            "imgFileID": 1,
            "customerID": 1,
            "customerName": "合作商1",
            "processTypeValue": 0,   
            "orderStatusValue": "什么状态",
            "refundStatusValue": 0,   
            "createTime": 111,
            "processTime": 111111,
            "isTimeout": 0,          
            "reassignmentNum": 0,
            "acceptUserType": 1,      
            "acceptUserName": "接单人1",
            "refundStatus": 0,        
            "operator": "操作人1号",
            "resendStatus": "1",
            "claimQueryStatus": 0,
            "vinCarInfoQueryStatus": 0,

            "isProcessing": 0,
            "isExistAccount": 0,
            "returnReason": "zheshi yuanyin"

        },{
            "orderID": 2,
            "orderNum": 22,
            "brandID": 2,
            "brandName": "本田",
            "brandFactoryID": 22,
            "brandFactoryName": "广州",
            "engineNum": 2222,
            "vin": 22222,
            "imgPath": "http://private4s.beitaijf.net/download?fileID=149125",
            "drivingLicenceImgFileID": 1,
            "drivingLicenceImgPath": "http://private4s.beitaijf.net/download?fileID=1422226",
            "imgFileID": 2,
            "customerID": 2,
            "customerName": "合作商2",
            "processTypeValue": 1,    
            "orderStatusValue": "什么状态",
            "refundStatusValue": 1,   
            "createTime": 2222222,
            "processTime": 222,
            "isTimeout": 1,           
            "reassignmentNum": 1,
            "acceptUserType": 2,       
            "acceptUserName": "接单人2",
            "refundStatus": 1,         
            "operator": "操作人2号",
            "claimQueryStatus": 1,
            "vinCarInfoQueryStatus": 1,

            "isProcessing": 0,
            "isExistAccount": 1,
            "returnReason": "zheshi yuanyin"
        },{
            "orderID": 2,
            "orderNum": 22,
            "brandID": 2,
            "brandName": "本田",
            "brandFactoryID": 22,
            "brandFactoryName": "广州",
            "engineNum": 2222,
            "vin": 22222,
            "imgPath": "http://private4s.beitaijf.net/download?fileID=149128",
            "drivingLicenceImgFileID": 1,
            "drivingLicenceImgPath": "http://private4s.beitaijf.net/download?fileID=142222",
            "imgFileID": 2,
            "customerID": 2,
            "customerName": "合作商2",
            "processTypeValue": 1,    
            "orderStatusValue": "什么状态",
            "refundStatusValue": 1,   
            "createTime": 2222222,
            "processTime": 222,
            "isTimeout": 1,           
            "reassignmentNum": 1,
            "acceptUserType": 2,       
            "acceptUserName": "接单人2",
            "refundStatus": 1,         
            "operator": "操作人2号",
            "claimQueryStatus": 0,
            "vinCarInfoQueryStatus": 2,

            "isProcessing": 0,
            "isExistAccount": 1,
            "returnReason": "zheshi yuanyin"
        },{
            "orderID": 2,
            "orderNum": 22,
            "brandID": 2,
            "brandName": "本田",
            "brandFactoryID": 22,
            "brandFactoryName": "广州",
            "engineNum": 2222,
            "vin": 22222,
            "imgPath": "http://public.upload.cheok.com/PUBLIC/CAR_IMAGE/2016-07-14/458d457c-cedb-4dba-b231-c43d77984e93.jpg",
            "drivingLicenceImgFileID": 1,
            "drivingLicenceImgPath": "http://private4s.beitaijf.net/download?fileID=14222",
            "imgFileID": 2,
            "customerID": 2,
            "customerName": "合作商2",
            "processTypeValue": 1,    
            "orderStatusValue": "什么状态",
            "refundStatusValue": 1,   
            "createTime": 2222222,
            "processTime": 222,
            "isTimeout": 1,           
            "reassignmentNum": 1,
            "acceptUserType": 2,       
            "acceptUserName": "接单人2",
            "refundStatus": 1,         
            "operator": "操作人2号",
            "claimQueryStatus": 1,
            "vinCarInfoQueryStatus": 1,

            "isProcessing": 0,
            "isExistAccount": 1,
            "returnReason": "zheshi yuanyin"
        }
    ],
    "page": {
        "currentPage": 1,
        "pageRecords": 10,
        "totalPages": 18,
        "totalRecords": 174,
        "startRecord": 0,
        "nextPage": 2,
        "previousPage": 0,
        "hasNextPage": true,
        "hasPreviousPage": true
    }
}