{
    "code": 1,
    "message": "",
    "object": [
        {
            "brandName":"丰田0",
            "brandFactoryName":"厂商02",
            "queryTypeName":"图片查询0",
            "supplierName":"车鉴定0",
            "brandId":"0",
            "brandFactoryId":"02",
            "queryType":"0",
            "supplier":"0",
            "configId":"0",
            "isDelete": "0"
        },
        {
            "brandName":"丰田1",
            "brandFactoryName":"厂商10",
            "queryTypeName":"图片查询1",
            "supplierName":"车鉴定1",
            "brandId":"1",
            "brandFactoryId":"10",
            "queryType":"1",
            "supplier":"1",
            "configId":"1",
            "isDelete": "0"
        },
        {
            "brandName":"丰田2",
            "brandFactoryName":"厂商22",
            "queryTypeName":"图片查询2",
            "supplierName":"车鉴定2",
            "brandId":"2",
            "brandFactoryId":"22",
            "queryType":"2",
            "supplier":"2",
            "configId":"2",
            "isDelete": "0"
        },
        {
            "brandName":"丰田3",
            "brandFactoryName":"厂商33",
            "queryTypeName":"图片查询3",
            "supplierName":"车鉴定3",
            "brandId":"3",
            "brandFactoryId":"33",
            "queryType":"3",
            "supplier":"3",
            "configId":"3",
            "isDelete": "0"
        },
        {
            "brandName":"丰田4",
            "brandFactoryName":"厂商42",
            "queryTypeName":"图片查询4",
            "supplierName":"车鉴定4",
            "brandId":"4",
            "brandFactoryId":"42",
            "queryType":"4",
            "supplier":"4",
            "configId":"4",
            "isDelete": "0"
        }
    ],
    "page": {
        "currentPage": 1,
        "pageRecords": 10,
        "totalPages": 18,
        "totalRecords": 174,
        "startRecord": 0,
        "nextPage": 2,
        "previousPage": 0,
        "hasNextPage": true,
        "hasPreviousPage": true
    }
}
